…
Only Include A/B/C grade

``` r
rest_inspec =
  rest_inspec |>
  filter(grade %in% c("A", "B", "C"), borough != "Missing") |> 
  mutate(borough = str_to_title(borough))

rest_inspec
```

    ## # A tibble: 189,894 × 26
    ##       camis dba        borough building street zipcode phone cuisine_description
    ##       <dbl> <chr>      <chr>   <chr>    <chr>    <dbl> <chr> <chr>              
    ##  1 41308044 RELISH CO… Manhat… 0        INSID…   10000 2127… American           
    ##  2 50038906 LE PAIN Q… Manhat… NKA      CENTR…   10000 2123… French             
    ##  3 41308044 RELISH CO… Manhat… 0        INSID…   10000 2127… American           
    ##  4 50038906 LE PAIN Q… Manhat… NKA      CENTR…   10000 2123… French             
    ##  5 50038906 LE PAIN Q… Manhat… NKA      CENTR…   10000 2123… French             
    ##  6 41308044 RELISH CO… Manhat… 0        INSID…   10000 2127… American           
    ##  7 41308044 RELISH CO… Manhat… 0        INSID…   10000 2127… American           
    ##  8 41308044 RELISH CO… Manhat… 0        INSID…   10000 2127… American           
    ##  9 50038906 LE PAIN Q… Manhat… NKA      CENTR…   10000 2123… French             
    ## 10 41308044 RELISH CO… Manhat… 0        INSID…   10000 2127… American           
    ## # ℹ 189,884 more rows
    ## # ℹ 18 more variables: inspection_date <dttm>, action <chr>,
    ## #   violation_code <chr>, violation_description <chr>, critical_flag <chr>,
    ## #   score <dbl>, record_date <dttm>, inspection_type <chr>, latitude <dbl>,
    ## #   longitude <dbl>, community_board <dbl>, council_district <chr>,
    ## #   census_tract <chr>, bin <dbl>, bbl <dbl>, nta <chr>, grade <chr>,
    ## #   grade_date <dttm>
…
print(pulse_data, n = 12)
```

    ## # A tibble: 4,348 × 5
    ##       id visit   age sex     bdi
    ##    <dbl> <fct> <dbl> <chr> <dbl>
    ##  1 10003 00m    48.0 male      7
    ##  2 10003 01m    48.0 male      1
    ##  3 10003 06m    48.0 male      2
    ##  4 10003 12m    48.0 male      0
    ##  5 10015 00m    72.5 male      6
    ##  6 10015 01m    72.5 male     NA
    ##  7 10015 06m    72.5 male     NA
    ##  8 10015 12m    72.5 male     NA
    ##  9 10022 00m    58.5 male     14
    ## 10 10022 01m    58.5 male      3
    ## 11 10022 06m    58.5 male      8
    ## 12 10022 12m    58.5 male     NA
    ## # ℹ 4,336 more rows
…
